{
  "admin": {
    "entityTypes": {
      "firm": ["global-edit"]
    },
    "level1": {
      "admin-addnew-client-prospects": {
        "entityTypes": {
          "firm": ["global-edit"]
        },
        "level2": {}
      },
      "admin-addnew-thirdparty": {
        "entityTypes": {
          "firm": ["global-edit"]
        },
        "level2": {}
      },
      "admin-clients": {
        "entityTypes": {
          "firm": ["global-edit"]
        },
        "level2": {
          "clients-prospect-firms": {
            "entityTypes": {
              "firm": ["global-edit"]
            },
            "level3": {}
          }
        }
      },
      "admin-cltprosp": {
        "entityTypes": {
          "firm": ["global-edit"]
        },
        "level2": {
          "contracts": {
            "entityTypes": {
              "firm": ["global-edit"]
            },
            "level3": {}
          },
          "documents": {
            "entityTypes": {
              "firm": ["global-edit"]
            },
            "level3": {}
          },
          "contacts": {
            "entityTypes": {
              "firm": ["global-edit"]
            },
            "level3": {}
          },
          "entity": {
            "entityTypes": {
              "firm": ["global-edit"]
            },
            "level3": {}
          }
        }
      },
      "admin-migtools": {
        "entityTypes": {
          "firm": ["global-edit"]
        },
        "level2": {}
      },
      "admin-migtools1": {
        "entityTypes": {
          "firm": ["global-edit"]
        },
        "level2": {}
      },
      "admin-thirdparty": {
        "entityTypes": {
          "firm": ["global-edit"]
        },
        "level2": {
          "clients-thirdparty-firms": {
            "entityTypes": {
              "firm": ["global-edit"]
            },
            "level3": {}
          },
          "entity": {
            "entityTypes": {
              "firm": ["global-edit"]
            },
            "level3": {}
          },
          "contracts": {
            "entityTypes": {
              "firm": ["global-edit"]
            },
            "level3": {}
          },
          "documents": {
            "entityTypes": {
              "firm": ["global-edit"]
            },
            "level3": {}
          },
          "contacts": {
            "entityTypes": {
              "firm": ["global-edit"]
            },
            "level3": {}
          },
          "firms": {
            "entityTypes": {
              "firm": ["global-edit"]
            },
            "level3": {}
          }
        }
      },
      "admin-usage": {
        "entityTypes": {
          "firm": ["global-edit"]
        },
        "level2": {
          "tasks": {
            "entityTypes": {
              "firm": ["global-edit"]
            },
            "level3": {}
          },
          "transactions": {
            "entityTypes": {
              "firm": ["global-edit"]
            },
            "level3": {}
          },
          "crm-details": {
            "entityTypes": {
              "firm": ["global-edit"]
            },
            "level3": {}
          },
          "documents": {
            "entityTypes": {
              "firm": ["global-edit"]
            },
            "level3": {}
          }
        }
      },
      "admin-billing": {
        "entityTypes": {
          "firm": ["global-edit"]
        },
        "level2": {}
      },
      "configuration": {
        "entityTypes": {
          "firm": ["global-edit"]
        },
        "level2": {
          "audit": {
            "entityTypes": {
              "firm": ["global-edit"]
            },
            "level3": {}
          },
          "checklists": {
            "entityTypes": {
              "firm": ["global-edit"]
            },
            "level3": {}
          },
          "notifications": {
            "entityTypes": {
              "firm": ["global-edit"]
            },
            "level3": {}
          },
          "reference-data": {
            "entityTypes": {
              "firm": ["global-edit"]
            },
            "level3": {}
          }
        }
      },
      "firms": {
        "entityTypes": {
          "firm": ["global-edit"]
        },
        "level2": {}
      },
      "users": {
        "entityTypes": {
          "firm": ["global-edit"]
        },
        "level2": {}
      },
      "admin-thirdparties": {
        "entityTypes": {
          "firm": ["global-edit"]
        },
        "level2": {
          "thirdparty-firms": {
            "entityTypes": {
              "firm": ["global-edit"]
            },
            "level3": {}
          }
        }
      }
    }
  },
  "admin-firms": {
    "entityTypes": {
      "client/prospect": [
        "global-edit",
        "global-readonly",
        "global-readonly-tran-edit",
        "tran-edit",
        "tran-readonly"
      ],
      "firm": [
        "global-edit",
        "global-readonly",
        "global-readonly-tran-edit",
        "tran-edit",
        "tran-readonly"
      ],
      "third-parties": [
        "global-edit",
        "global-readonly",
        "global-readonly-tran-edit",
        "tran-edit",
        "tran-readonly"
      ]
    },
    "level1": {
      "add-ons": {
        "entityTypes": {
          "client/prospect": [
            "global-edit",
            "global-readonly",
            "global-readonly-tran-edit",
            "tran-edit",
            "tran-readonly"
          ],
          "firm": [
            "global-edit",
            "global-readonly",
            "global-readonly-tran-edit",
            "tran-edit",
            "tran-readonly"
          ],
          "third-parties": [
            "global-edit",
            "global-readonly",
            "global-readonly-tran-edit",
            "tran-edit",
            "tran-readonly"
          ]
        },
        "level2": {}
      },
      "firms": {
        "entityTypes": {
          "client/prospect": [
            "global-edit",
            "global-readonly",
            "global-readonly-tran-edit",
            "tran-edit",
            "tran-readonly"
          ],
          "firm": [
            "global-edit",
            "global-readonly",
            "global-readonly-tran-edit",
            "tran-edit",
            "tran-readonly"
          ],
          "third-parties": [
            "global-edit",
            "global-readonly",
            "global-readonly-tran-edit",
            "tran-edit",
            "tran-readonly"
          ]
        },
        "level2": {}
      },
      "activity-log": {
        "entityTypes": {
          "client/prospect": [
            "global-edit",
            "global-readonly",
            "global-readonly-tran-edit",
            "tran-edit",
            "tran-readonly"
          ],
          "firm": [
            "global-edit",
            "global-readonly",
            "global-readonly-tran-edit",
            "tran-edit",
            "tran-readonly"
          ],
          "third-parties": [
            "global-edit",
            "global-readonly",
            "global-readonly-tran-edit",
            "tran-edit",
            "tran-readonly"
          ]
        },
        "level2": {}
      }
    }
  },
  "admin-users": {
    "entityTypes": {
      "client/prospect": [
        "global-edit",
        "global-readonly",
        "global-readonly-tran-edit",
        "tran-edit",
        "tran-readonly"
      ],
      "firm": [
        "global-edit",
        "global-readonly",
        "global-readonly-tran-edit",
        "tran-edit",
        "tran-readonly"
      ],
      "third-parties": [
        "global-edit",
        "global-readonly",
        "global-readonly-tran-edit",
        "tran-edit",
        "tran-readonly"
      ]
    },
    "level1": {
      "add-ons": {
        "entityTypes": {
          "client/prospect": [
            "global-edit",
            "global-readonly",
            "global-readonly-tran-edit",
            "tran-edit",
            "tran-readonly"
          ],
          "firm": [
            "global-edit",
            "global-readonly",
            "global-readonly-tran-edit",
            "tran-edit",
            "tran-readonly"
          ],
          "third-parties": [
            "global-edit",
            "global-readonly",
            "global-readonly-tran-edit",
            "tran-edit",
            "tran-readonly"
          ]
        },
        "level2": {}
      },
      "users": {
        "entityTypes": {
          "client/prospect": [
            "global-edit",
            "global-readonly",
            "global-readonly-tran-edit",
            "tran-edit",
            "tran-readonly"
          ],
          "firm": [
            "global-edit",
            "global-readonly",
            "global-readonly-tran-edit",
            "tran-edit",
            "tran-readonly"
          ],
          "third-parties": [
            "global-edit",
            "global-readonly",
            "global-readonly-tran-edit",
            "tran-edit",
            "tran-readonly"
          ]
        },
        "level2": {}
      }
    }
  },
  "clients-propects": {
    "entityTypes": {
      "client/prospect": [
        "global-edit",
        "global-readonly",
        "global-readonly-tran-edit",
        "tran-edit",
        "tran-readonly"
      ],
      "firm": [
        "global-edit",
        "global-readonly",
        "global-readonly-tran-edit",
        "tran-edit",
        "tran-readonly"
      ],
      "third-parties": [
        "global-edit",
        "global-readonly",
        "global-readonly-tran-edit",
        "tran-edit",
        "tran-readonly"
      ]
    },
    "level1": {
      "activity-log": {
        "entityTypes": {
          "firm": [
            "global-edit",
            "global-readonly",
            "global-readonly-tran-edit",
            "tran-edit",
            "tran-readonly"
          ]
        },
        "level2": {}
      },
      "business-activity": {
        "entityTypes": {
          "client/prospect": [
            "global-edit",
            "global-readonly",
            "global-readonly-tran-edit",
            "tran-edit",
            "tran-readonly"
          ],
          "firm": [
            "global-edit",
            "global-readonly",
            "global-readonly-tran-edit",
            "tran-edit",
            "tran-readonly"
          ],
          "third-parties": [
            "global-edit",
            "global-readonly",
            "global-readonly-tran-edit",
            "tran-edit",
            "tran-readonly"
          ]
        },
        "level2": {}
      },
      "contacts": {
        "entityTypes": {
          "client/prospect": [
            "global-edit",
            "global-readonly",
            "global-readonly-tran-edit",
            "tran-edit",
            "tran-readonly"
          ],
          "firm": [
            "global-edit",
            "global-readonly",
            "global-readonly-tran-edit",
            "tran-edit",
            "tran-readonly"
          ],
          "third-parties": [
            "global-edit",
            "global-readonly",
            "global-readonly-tran-edit",
            "tran-edit",
            "tran-readonly"
          ]
        },
        "level2": {}
      },
      "contracts": {
        "entityTypes": {
          "firm": [
            "global-edit",
            "global-readonly",
            "global-readonly-tran-edit",
            "tran-edit",
            "tran-readonly"
          ]
        },
        "level2": {}
      },
      "documents": {
        "entityTypes": {
          "firm": [
            "global-edit",
            "global-readonly",
            "global-readonly-tran-edit",
            "tran-edit",
            "tran-readonly"
          ]
        },
        "level2": {}
      },
      "entity": {
        "entityTypes": {
          "client/prospect": [
            "global-edit",
            "global-readonly",
            "global-readonly-tran-edit",
            "tran-edit",
            "tran-readonly"
          ],
          "firm": [
            "global-edit",
            "global-readonly",
            "global-readonly-tran-edit",
            "tran-edit",
            "tran-readonly"
          ],
          "third-parties": [
            "global-edit",
            "global-readonly",
            "global-readonly-tran-edit",
            "tran-edit",
            "tran-readonly"
          ]
        },
        "level2": {}
      },
      "metrics": {
        "entityTypes": {
          "client/prospect": [
            "global-edit",
            "global-readonly",
            "global-readonly-tran-edit",
            "tran-edit",
            "tran-readonly"
          ],
          "firm": [
            "global-edit",
            "global-readonly",
            "global-readonly-tran-edit",
            "tran-edit",
            "tran-readonly"
          ],
          "third-parties": [
            "global-edit",
            "global-readonly",
            "global-readonly-tran-edit",
            "tran-edit",
            "tran-readonly"
          ]
        },
        "level2": {}
      }
    }
  },
  "new-compliance": {
    "entityTypes": {
      "firm": [
        "global-edit",
        "global-readonly",
        "global-readonly-tran-edit",
        "tran-edit",
        "tran-readonly"
      ]
    },
    "level1": {
      "check-step-one": {
        "entityTypes": {
          "firm": [
            "global-edit",
            "global-readonly",
            "global-readonly-tran-edit",
            "tran-edit",
            "tran-readonly"
          ]
        },
        "level2": {}
      },
      "check-step-two": {
        "entityTypes": {
          "firm": [
            "global-edit",
            "global-readonly",
            "global-readonly-tran-edit",
            "tran-edit",
            "tran-readonly"
          ]
        },
        "level2": {}
      },
      "comp-polandproc": {
        "entityTypes": {
          "firm": [
            "global-edit",
            "global-readonly",
            "global-readonly-tran-edit",
            "tran-edit",
            "tran-readonly"
          ]
        },
        "level2": {}
      },
      "comp-formLinks": {
        "entityTypes": {
          "firm": [
            "global-edit",
            "global-readonly",
            "global-readonly-tran-edit",
            "tran-edit",
            "tran-readonly"
          ]
        },
        "level2": {}
      },
      "cac": {
        "entityTypes": {
          "firm": [
            "global-edit",
            "global-readonly",
            "global-readonly-tran-edit",
            "tran-edit",
            "tran-readonly"
          ]
        },
        "level2": {
          "audit": {
            "entityTypes": {
              "firm": [
                "global-edit",
                "global-readonly",
                "global-readonly-tran-edit",
                "tran-edit",
                "tran-readonly"
              ]
            },
            "level3": {}
          },
          "edit-control": {
            "entityTypes": {
              "firm": [
                "global-edit",
                "global-readonly",
                "global-readonly-tran-edit",
                "tran-edit",
                "tran-readonly"
              ]
            },
            "level3": {}
          },
          "monitor": {
            "entityTypes": {
              "firm": [
                "global-edit",
                "global-readonly",
                "global-readonly-tran-edit",
                "tran-edit",
                "tran-readonly"
              ]
            },
            "level3": {}
          },
          "view-control": {
            "entityTypes": {
              "firm": [
                "global-edit",
                "global-readonly",
                "global-readonly-tran-edit",
                "tran-edit",
                "tran-readonly"
              ]
            },
            "level3": {}
          },
          "controls-list": {
            "entityTypes": {
              "firm": [
                "global-edit",
                "global-readonly",
                "global-readonly-tran-edit",
                "tran-edit",
                "tran-readonly"
              ]
            },
            "level3": {}
          }
        }
      },
      "formsLinks": {
        "entityTypes": {
          "firm": [
            "global-edit",
            "global-readonly",
            "global-readonly-tran-edit",
            "tran-edit",
            "tran-readonly"
          ]
        },
        "level2": {}
      },
      "policiesProcedures": {
        "entityTypes": {
          "firm": [
            "global-edit",
            "global-readonly",
            "global-readonly-tran-edit",
            "tran-edit",
            "tran-readonly"
          ]
        },
        "level2": {}
      },
      "supervisor": {
        "entityTypes": {
          "firm": [
            "global-edit",
            "global-readonly",
            "global-readonly-tran-edit",
            "tran-edit",
            "tran-readonly"
          ]
        },
        "level2": {
          "cmp-sup-busconduct": {
            "entityTypes": {
              "firm": ["global-edit", "global-readonly", "tran-edit"]
            },
            "level3": {
              "details": {
                "entityTypes": {
                  "firm": ["global-edit", "global-readonly", "tran-edit"]
                }
              }
            }
          },
          "cmp-sup-complaints": {
            "entityTypes": {
              "firm": ["global-edit", "global-readonly", "tran-edit"]
            },
            "level3": {
              "details": {
                "entityTypes": {
                  "firm": ["global-edit", "tran-edit"]
                }
              },
              "audit": {
                "entityTypes": {
                  "firm": ["global-edit", "global-readonly", "tran-edit"]
                }
              }
            }
          },
          "cmp-sup-compobligations": {
            "entityTypes": {
              "firm": ["global-edit", "global-readonly", "tran-edit"]
            },
            "level3": {}
          },
          "cmp-sup-general": {
            "entityTypes": {
              "firm": ["global-edit", "global-readonly", "tran-edit"]
            },
            "level3": {}
          },
          "cmp-sup-gifts": {
            "entityTypes": {
              "firm": [
                "global-edit",
                "global-readonly",
                "tran-edit",
                "tran-readonly",
                "global-readonly-tran-edit"
              ]
            },
            "level3": {}
          },
          "cmp-sup-political": {
            "entityTypes": {
              "firm": [
                "global-edit",
                "global-readonly",
                "global-readonly-tran-edit",
                "tran-edit",
                "tran-readonly"
              ]
            },
            "level3": {
              "complete": {
                "entityTypes": {
                  "firm": [
                    "global-edit",
                    "global-readonly",
                    "global-readonly-tran-edit",
                    "tran-edit",
                    "tran-readonly"
                  ]
                }
              },
              "disclosure": {
                "entityTypes": {
                  "firm": [
                    "global-edit",
                    "global-readonly",
                    "global-readonly-tran-edit",
                    "tran-edit",
                    "tran-readonly"
                  ]
                }
              },
              "information": {
                "entityTypes": {
                  "firm": [
                    "global-edit",
                    "global-readonly",
                    "global-readonly-tran-edit",
                    "tran-edit",
                    "tran-readonly"
                  ]
                }
              },
              "dashboard": {
                "entityTypes": {
                  "firm": [
                    "global-edit",
                    "global-readonly",
                    "global-readonly-tran-edit",
                    "tran-edit",
                    "tran-readonly"
                  ]
                }
              },
              "msrbsubmission": {
                "entityTypes": {
                  "firm": [
                    "global-edit",
                    "global-readonly",
                    "global-readonly-tran-edit",
                    "tran-edit",
                    "tran-readonly"
                  ]
                }
              }
            }
          },
          "cmp-sup-prof": {
            "entityTypes": {
              "firm": ["global-edit", "global-readonly", "tran-edit"]
            },
            "level3": {}
          }
        }
      },
      "cmp-sup-busconduct": {
        "entityTypes": {
          "firm": ["global-edit", "global-readonly", "tran-edit"]
        },
        "level2": {}
      },
      "cmp-sup-complaints": {
        "entityTypes": {
          "firm": ["global-edit", "global-readonly"]
        },
        "level2": {
          "details": {
            "entityTypes": {
              "firm": ["global-edit", "global-readonly"]
            },
            "level3": {}
          },
          "list": {
            "entityTypes": {
              "firm": ["global-edit", "global-readonly"]
            },
            "level3": {}
          }
        }
      },
      "cmp-sup-compobligations": {
        "entityTypes": {
          "firm": ["global-edit", "global-readonly", "tran-edit"]
        },
        "level2": {}
      },
      "cmp-sup-general": {
        "entityTypes": {
          "firm": ["global-edit", "global-readonly"]
        },
        "level2": {
          "details": {
            "entityTypes": {
              "firm": ["global-edit", "global-readonly"]
            },
            "level3": {}
          }
        }
      },
      "cmp-sup-gifts": {
        "entityTypes": {
          "firm": [
            "global-edit",
            "global-readonly",
            "tran-edit",
            "global-readonly-tran-edit",
            "tran-readonly"
          ]
        },
        "level2": {}
      },
      "cmp-sup-political": {
        "entityTypes": {
          "firm": [
            "global-edit",
            "global-readonly",
            "tran-edit",
            "global-readonly-tran-edit",
            "tran-readonly"
          ]
        },
        "level2": {}
      },
      "cmp-sup-prof": {
        "entityTypes": {
          "firm": ["global-edit", "global-readonly"]
        },
        "level2": {}
      },
      "complete": {
        "entityTypes": {
          "firm": [
            "global-edit",
            "global-readonly",
            "global-readonly-tran-edit",
            "tran-edit",
            "tran-readonly"
          ]
        },
        "level2": {}
      },
      "gifts-complete": {
        "entityTypes": {
          "firm": [
            "global-edit",
            "global-readonly",
            "global-readonly-tran-edit",
            "tran-edit",
            "tran-readonly"
          ]
        },
        "level2": {}
      }
    }
  },
  "compliance": {
    "entityTypes": {
      "firm": [
        "global-edit",
        "global-readonly",
        "global-readonly-tran-edit",
        "tran-edit",
        "tran-readonly"
      ]
    },
    "level1": {
      "check-step-one": {
        "entityTypes": {
          "firm": [
            "global-edit",
            "global-readonly",
            "global-readonly-tran-edit",
            "tran-edit",
            "tran-readonly"
          ]
        },
        "level2": {}
      },
      "check-step-two": {
        "entityTypes": {
          "firm": [
            "global-edit",
            "global-readonly",
            "global-readonly-tran-edit",
            "tran-edit",
            "tran-readonly"
          ]
        },
        "level2": {}
      },
      "comp-polandproc": {
        "entityTypes": {
          "firm": [
            "global-edit",
            "global-readonly",
            "global-readonly-tran-edit",
            "tran-edit",
            "tran-readonly"
          ]
        },
        "level2": {}
      },
      "comp-formLinks": {
        "entityTypes": {
          "firm": [
            "global-edit",
            "global-readonly",
            "global-readonly-tran-edit",
            "tran-edit",
            "tran-readonly"
          ]
        },
        "level2": {}
      },
      "cac": {
        "entityTypes": {
          "firm": [
            "global-edit",
            "global-readonly",
            "global-readonly-tran-edit",
            "tran-edit",
            "tran-readonly"
          ]
        },
        "level2": {
          "audit": {
            "entityTypes": {
              "firm": [
                "global-edit",
                "global-readonly",
                "global-readonly-tran-edit",
                "tran-edit",
                "tran-readonly"
              ]
            },
            "level3": {}
          },
          "edit-control": {
            "entityTypes": {
              "firm": [
                "global-edit",
                "global-readonly",
                "global-readonly-tran-edit",
                "tran-edit",
                "tran-readonly"
              ]
            },
            "level3": {}
          },
          "monitor": {
            "entityTypes": {
              "firm": [
                "global-edit",
                "global-readonly",
                "global-readonly-tran-edit",
                "tran-edit",
                "tran-readonly"
              ]
            },
            "level3": {}
          },
          "view-control": {
            "entityTypes": {
              "firm": [
                "global-edit",
                "global-readonly",
                "global-readonly-tran-edit",
                "tran-edit",
                "tran-readonly"
              ]
            },
            "level3": {}
          },
          "controls-list": {
            "entityTypes": {
              "firm": [
                "global-edit",
                "global-readonly",
                "global-readonly-tran-edit",
                "tran-edit",
                "tran-readonly"
              ]
            },
            "level3": {}
          }
        }
      },
      "formsLinks": {
        "entityTypes": {
          "firm": [
            "global-edit",
            "global-readonly",
            "global-readonly-tran-edit",
            "tran-edit",
            "tran-readonly"
          ]
        },
        "level2": {}
      },
      "policiesProcedures": {
        "entityTypes": {
          "firm": [
            "global-edit",
            "global-readonly",
            "global-readonly-tran-edit",
            "tran-edit",
            "tran-readonly"
          ]
        },
        "level2": {}
      },
      "supervisor": {
        "entityTypes": {
          "firm": [
            "global-edit",
            "global-readonly",
            "global-readonly-tran-edit",
            "tran-edit",
            "tran-readonly"
          ]
        },
        "level2": {
          "cmp-sup-busconduct": {
            "entityTypes": {
              "firm": ["global-edit", "global-readonly", "tran-edit"]
            },
            "level3": {
              "details": {
                "entityTypes": {
                  "firm": ["global-edit", "global-readonly", "tran-edit"]
                }
              }
            }
          },
          "cmp-sup-complaints": {
            "entityTypes": {
              "firm": ["global-edit", "global-readonly", "tran-edit"]
            },
            "level3": {
              "admin": {
                "entityTypes": {
                  "firm": ["global-edit", "global-readonly", "tran-edit"]
                }
              },
              "recordkeeping": {
                "entityTypes": {
                  "firm": ["global-edit", "global-readonly", "tran-edit"]
                }
              },
              "complaints": {
                "entityTypes": {
                  "firm": ["global-edit", "global-readonly", "tran-edit"]
                }
              },
              "audit": {
                "entityTypes": {
                  "firm": ["global-edit", "global-readonly", "tran-edit"]
                }
              }
            }
          },
          "cmp-sup-compobligations": {
            "entityTypes": {
              "firm": ["global-edit", "global-readonly", "tran-edit"]
            },
            "level3": {}
          },
          "cmp-sup-gifts": {
            "entityTypes": {
              "firm": [
                "global-edit",
                "global-readonly",
                "tran-edit",
                "tran-readonly",
                "global-readonly-tran-edit"
              ]
            },
            "level3": {}
          },
          "cmp-sup-political": {
            "entityTypes": {
              "firm": [
                "global-edit",
                "global-readonly",
                "global-readonly-tran-edit",
                "tran-edit",
                "tran-readonly"
              ]
            },
            "level3": {
              "complete": {
                "entityTypes": {
                  "firm": [
                    "global-edit",
                    "global-readonly",
                    "global-readonly-tran-edit",
                    "tran-edit",
                    "tran-readonly"
                  ]
                }
              },
              "disclosure": {
                "entityTypes": {
                  "firm": [
                    "global-edit",
                    "global-readonly",
                    "global-readonly-tran-edit",
                    "tran-edit",
                    "tran-readonly"
                  ]
                }
              },
              "information": {
                "entityTypes": {
                  "firm": [
                    "global-edit",
                    "global-readonly",
                    "global-readonly-tran-edit",
                    "tran-edit",
                    "tran-readonly"
                  ]
                }
              },
              "dashboard": {
                "entityTypes": {
                  "firm": [
                    "global-edit",
                    "global-readonly",
                    "global-readonly-tran-edit",
                    "tran-edit",
                    "tran-readonly"
                  ]
                }
              },
              "msrbsubmission": {
                "entityTypes": {
                  "firm": [
                    "global-edit",
                    "global-readonly",
                    "global-readonly-tran-edit",
                    "tran-edit",
                    "tran-readonly"
                  ]
                }
              }
            }
          },
          "cmp-sup-general": {
            "entityTypes": {
              "firm": ["global-edit", "global-readonly", "tran-edit"]
            },
            "level3": {
              "admin": {
                "entityTypes": {
                  "firm": [
                    "global-edit",
                    "global-readonly",
                    "global-readonly-tran-edit",
                    "tran-edit",
                    "tran-readonly"
                  ]
                }
              },
              "record-keeping": {
                "entityTypes": {
                  "firm": [
                    "global-edit",
                    "global-readonly",
                    "global-readonly-tran-edit",
                    "tran-edit",
                    "tran-readonly"
                  ]
                }
              },
              "audit": {
                "entityTypes": {
                  "firm": [
                    "global-edit",
                    "global-readonly",
                    "global-readonly-tran-edit",
                    "tran-edit",
                    "tran-readonly"
                  ]
                }
              }
            }
          },
          "cmp-sup-prof": {
            "entityTypes": {
              "firm": ["global-edit", "global-readonly", "tran-edit"]
            },
            "level3": {
              "associate-persons": {
                "entityTypes": {
                  "firm": ["global-edit", "global-readonly", "tran-edit"]
                }
              },
              "record-keeping": {
                "entityTypes": {
                  "firm": ["global-edit", "global-readonly", "tran-edit"]
                }
              },
              "audit": {
                "entityTypes": {
                  "firm": ["global-edit", "global-readonly", "tran-edit"]
                }
              }
            }
          }
        }
      },
      "cmp-sup-busconduct": {
        "entityTypes": {
          "firm": ["global-edit", "global-readonly", "global-readonly-tran-edit", "tran-edit", "tran-readonly"]
        },
        "level2": {}
      },
      "cmp-sup-complaints": {
        "entityTypes": {
          "firm": ["global-edit", "global-readonly"]
        },
        "level2": {
          "admin": {
            "entityTypes": {
              "firm": ["global-edit", "global-readonly",
                "global-readonly-tran-edit", "tran-edit", "tran-readonly"
              ]
            },
            "level3": {}
          },
          "recordkeeping": {
            "entityTypes": {
              "firm": ["global-edit", "global-readonly",
                "global-readonly-tran-edit", "tran-edit", "tran-readonly"
              ]
            },
            "level3": {}
          },
          "complaints": {
            "entityTypes": {
              "firm": ["global-edit", "global-readonly",
                "global-readonly-tran-edit", "tran-edit", "tran-readonly"
              ]
            },
            "level3": {}
          },
          "audit": {
            "entityTypes": {
              "firm": ["global-edit", "global-readonly",
                "global-readonly-tran-edit", "tran-edit", "tran-readonly"
              ]
            },
            "level3": {}
          }
        }
      },
      "cmp-sup-compobligations": {
        "entityTypes": {
          "firm": ["global-edit", "global-readonly", "global-readonly-tran-edit", "tran-edit", "tran-readonly"]
        },
        "level2": {}
      },
      "cmp-sup-general": {
        "entityTypes": {
          "firm": ["global-edit", "global-readonly", "tran-edit"]
        },
        "level2": {
          "admin": {
            "entityTypes": {
              "firm": [
                "global-edit",
                "global-readonly",
                "global-readonly-tran-edit",
                "tran-edit",
                "tran-readonly"
              ]
            },
            "level3": {}
          },
          "record-keeping": {
            "entityTypes": {
              "firm": [
                "global-edit",
                "global-readonly",
                "global-readonly-tran-edit",
                "tran-edit",
                "tran-readonly"
              ]
            },
            "level3": {}
          },
          "audit": {
            "entityTypes": {
              "firm": [
                "global-edit",
                "global-readonly",
                "global-readonly-tran-edit",
                "tran-edit",
                "tran-readonly"
              ]
            },
            "level3": {}
          }
        }
      },
      "cmp-sup-prof": {
        "entityTypes": {
          "firm": ["global-edit", "global-readonly", "tran-edit"]
        },
        "level2": {
          "associate-persons": {
            "entityTypes": {
              "firm": [
                "global-edit",
                "global-readonly",
                "global-readonly-tran-edit",
                "tran-edit",
                "tran-readonly"
              ]
            },
            "level3": {}
          },
          "record-keeping": {
            "entityTypes": {
              "firm": [
                "global-edit",
                "global-readonly",
                "global-readonly-tran-edit",
                "tran-edit",
                "tran-readonly"
              ]
            },
            "level3": {}
          },
          "audit": {
            "entityTypes": {
              "firm": [
                "global-edit",
                "global-readonly",
                "global-readonly-tran-edit",
                "tran-edit",
                "tran-readonly"
              ]
            },
            "level3": {}
          }
        }
      },
      "cmp-sup-gifts": {
        "entityTypes": {
          "firm": [
            "global-edit",
            "global-readonly",
            "tran-edit",
            "global-readonly-tran-edit",
            "tran-readonly"
          ]
        },
        "level2": {}
      },
      "cmp-sup-political": {
        "entityTypes": {
          "firm": [
            "global-edit",
            "global-readonly",
            "tran-edit",
            "global-readonly-tran-edit",
            "tran-readonly"
          ]
        },
        "level2": {}
      },
      "complete": {
        "entityTypes": {
          "firm": [
            "global-edit",
            "global-readonly",
            "global-readonly-tran-edit",
            "tran-edit",
            "tran-readonly"
          ]
        },
        "level2": {}
      },
      "gifts-complete": {
        "entityTypes": {
          "firm": [
            "global-edit",
            "global-readonly",
            "global-readonly-tran-edit",
            "tran-edit",
            "tran-readonly"
          ]
        },
        "level2": {}
      }
    }
  },
  "dash-cltprosp": {
    "entityTypes": {
      "client/prospect": [
        "global-edit",
        "global-readonly",
        "tran-edit",
        "global-readonly-tran-edit",
        "tran-readonly"
      ],
      "firm": [
        "global-edit",
        "global-readonly",
        "tran-edit",
        "global-readonly-tran-edit",
        "tran-readonly"
      ],
      "third-parties": [
        "global-edit",
        "global-readonly",
        "tran-edit",
        "global-readonly-tran-edit",
        "tran-readonly"
      ]
    },
    "level1": {}
  },
  "dashboard": {
    "entityTypes": {
      "client/prospect": [
        "global-edit",
        "global-readonly",
        "global-readonly-tran-edit",
        "tran-edit",
        "tran-readonly"
      ],
      "firm": [
        "global-edit",
        "global-readonly",
        "global-readonly-tran-edit",
        "tran-edit",
        "tran-readonly"
      ],
      "third-parties": [
        "global-edit",
        "global-readonly",
        "global-readonly-tran-edit",
        "tran-edit",
        "tran-readonly"
      ]
    },
    "level1": {}
  },
  "dash-alt": {
    "entityTypes": {
      "client/prospect": [
        "global-edit",
        "global-readonly",
        "global-readonly-tran-edit",
        "tran-edit",
        "tran-readonly"
      ],
      "firm": [
        "global-edit",
        "global-readonly",
        "global-readonly-tran-edit",
        "tran-edit",
        "tran-readonly"
      ],
      "third-parties": [
        "global-edit",
        "global-readonly",
        "global-readonly-tran-edit",
        "tran-edit",
        "tran-readonly"
      ]
    },
    "level1": {}
  },
  "dash-projects": {
    "entityTypes": {
      "client/prospect": [
        "global-edit",
        "global-readonly",
        "global-readonly-tran-edit",
        "tran-edit",
        "tran-readonly"
      ],
      "firm": [
        "global-edit",
        "global-readonly",
        "global-readonly-tran-edit",
        "tran-edit",
        "tran-readonly"
      ],
      "third-parties": [
        "global-edit",
        "global-readonly",
        "global-readonly-tran-edit",
        "tran-edit",
        "tran-readonly"
      ]
    },
    "level1": {}
  },
  "dash-projects-alt": {
    "entityTypes": {
      "client/prospect": [
        "global-edit",
        "global-readonly",
        "global-readonly-tran-edit",
        "tran-edit",
        "tran-readonly"
      ],
      "firm": [
        "global-edit",
        "global-readonly",
        "global-readonly-tran-edit",
        "tran-edit",
        "tran-readonly"
      ],
      "third-parties": [
        "global-edit",
        "global-readonly",
        "global-readonly-tran-edit",
        "tran-edit",
        "tran-readonly"
      ]
    },
    "level1": {}
  },
  "dash-projs": {
    "entityTypes": {
      "client/prospect": [
        "global-edit",
        "global-readonly",
        "global-readonly-tran-edit",
        "tran-edit",
        "tran-readonly"
      ],
      "firm": [
        "global-edit",
        "global-readonly",
        "global-readonly-tran-edit",
        "tran-edit",
        "tran-readonly"
      ],
      "third-parties": [
        "global-edit",
        "global-readonly",
        "global-readonly-tran-edit",
        "tran-edit",
        "tran-readonly"
      ]
    },
    "level1": {}
  },
  "deals": {
    "entityTypes": {
      "client/prospect": [
        "global-edit",
        "global-readonly",
        "global-readonly-tran-edit",
        "tran-edit",
        "tran-readonly"
      ],
      "firm": [
        "global-edit",
        "global-readonly",
        "global-readonly-tran-edit",
        "tran-edit",
        "tran-readonly"
      ],
      "third-parties": [
        "global-edit",
        "global-readonly",
        "global-readonly-tran-edit",
        "tran-edit",
        "tran-readonly"
      ]
    },
    "level1": {
      "audit-trail": {
        "entityTypes": {
          "firm": [
            "global-edit",
            "global-readonly",
            "global-readonly-tran-edit",
            "tran-edit",
            "tran-readonly"
          ]
        },
        "level2": {}
      },
      "check-track": {
        "entityTypes": {
          "client/prospect": [
            "global-edit",
            "global-readonly",
            "global-readonly-tran-edit",
            "tran-edit",
            "tran-readonly"
          ],
          "firm": [
            "global-edit",
            "global-readonly",
            "global-readonly-tran-edit",
            "tran-edit",
            "tran-readonly"
          ],
          "third-parties": [
            "global-edit",
            "global-readonly",
            "global-readonly-tran-edit",
            "tran-edit",
            "tran-readonly"
          ]
        },
        "level2": {}
      },
      "details": {
        "entityTypes": {
          "client/prospect": [
            "global-edit",
            "global-readonly",
            "global-readonly-tran-edit",
            "tran-edit",
            "tran-readonly"
          ],
          "firm": [
            "global-edit",
            "global-readonly",
            "global-readonly-tran-edit",
            "tran-edit",
            "tran-readonly"
          ]
        },
        "level2": {}
      },
      "documents": {
        "entityTypes": {
          "client/prospect": [
            "global-edit",
            "global-readonly",
            "global-readonly-tran-edit",
            "tran-edit",
            "tran-readonly"
          ],
          "firm": [
            "global-edit",
            "global-readonly",
            "global-readonly-tran-edit",
            "tran-edit",
            "tran-readonly"
          ],
          "third-parties": [
            "global-edit",
            "global-readonly",
            "global-readonly-tran-edit",
            "tran-edit",
            "tran-readonly"
          ]
        },
        "level2": {}
      },
      "participants": {
        "entityTypes": {
          "client/prospect": [
            "global-edit",
            "global-readonly",
            "global-readonly-tran-edit",
            "tran-edit",
            "tran-readonly"
          ],
          "firm": [
            "global-edit",
            "global-readonly",
            "global-readonly-tran-edit",
            "tran-edit",
            "tran-readonly"
          ]
        },
        "level2": {}
      },
      "pricing": {
        "entityTypes": {
          "client/prospect": [
            "global-edit",
            "global-readonly",
            "global-readonly-tran-edit",
            "tran-edit",
            "tran-readonly"
          ],
          "firm": [
            "global-edit",
            "global-readonly",
            "global-readonly-tran-edit",
            "tran-edit",
            "tran-readonly"
          ]
        },
        "level2": {}
      },
      "ratings": {
        "entityTypes": {
          "client/prospect": [
            "global-edit",
            "global-readonly",
            "global-readonly-tran-edit",
            "tran-edit",
            "tran-readonly"
          ],
          "firm": [
            "global-edit",
            "global-readonly",
            "global-readonly-tran-edit",
            "tran-edit",
            "tran-readonly"
          ]
        },
        "level2": {}
      },
      "summary": {
        "entityTypes": {
          "client/prospect": [
            "global-edit",
            "global-readonly",
            "global-readonly-tran-edit",
            "tran-edit",
            "tran-readonly"
          ],
          "firm": [
            "global-edit",
            "global-readonly",
            "global-readonly-tran-edit",
            "tran-edit",
            "tran-readonly"
          ],
          "third-parties": [
            "global-edit",
            "global-readonly",
            "global-readonly-tran-edit",
            "tran-edit",
            "tran-readonly"
          ]
        },
        "level2": {}
      }
    }
  },
  "bus-development": {
    "entityTypes": {
      "client/prospect": [
        "global-edit",
        "global-readonly",
        "global-readonly-tran-edit",
        "tran-edit",
        "tran-readonly"
      ],
      "firm": [
        "global-edit",
        "global-readonly",
        "global-readonly-tran-edit",
        "tran-edit",
        "tran-readonly"
      ],
      "third-parties": [
        "global-edit",
        "global-readonly",
        "global-readonly-tran-edit",
        "tran-edit",
        "tran-readonly"
      ]
    },
    "level1": {
      "audit-trail": {
        "entityTypes": {
          "firm": [
            "global-edit",
            "global-readonly",
            "global-readonly-tran-edit",
            "tran-edit",
            "tran-readonly"
          ]
        },
        "level2": {}
      },
      "details": {
        "entityTypes": {
          "client/prospect": [
            "global-edit",
            "global-readonly",
            "global-readonly-tran-edit",
            "tran-edit",
            "tran-readonly"
          ],
          "firm": [
            "global-edit",
            "global-readonly",
            "global-readonly-tran-edit",
            "tran-edit",
            "tran-readonly"
          ]
        },
        "level2": {}
      },
      "documents": {
        "entityTypes": {
          "client/prospect": [
            "global-edit",
            "global-readonly",
            "global-readonly-tran-edit",
            "tran-edit",
            "tran-readonly"
          ],
          "firm": [
            "global-edit",
            "global-readonly",
            "global-readonly-tran-edit",
            "tran-edit",
            "tran-readonly"
          ],
          "third-parties": [
            "global-edit",
            "global-readonly",
            "global-readonly-tran-edit",
            "tran-edit",
            "tran-readonly"
          ]
        },
        "level2": {}
      }
    }
  },
  "business-development": {
    "entityTypes": {
      "firm": [
        "global-edit",
        "global-readonly",
        "global-readonly-tran-edit",
        "tran-edit",
        "tran-readonly"
      ]
    },
    "level1": {
      "summary": {
        "entityTypes": {
          "firm": [
            "global-edit",
            "global-readonly",
            "global-readonly-tran-edit",
            "tran-edit",
            "tran-readonly"
          ]
        },
        "level2": {}
      }
    }
  },
  "derivative": {
    "entityTypes": {
      "client/prospect": [
        "global-edit",
        "global-readonly",
        "global-readonly-tran-edit",
        "tran-edit",
        "tran-readonly"
      ],
      "firm": [
        "global-edit",
        "global-readonly",
        "global-readonly-tran-edit",
        "tran-edit",
        "tran-readonly"
      ],
      "third-parties": [
        "global-edit",
        "global-readonly",
        "global-readonly-tran-edit",
        "tran-edit",
        "tran-readonly"
      ]
    },
    "level1": {
      "audit-trail": {
        "entityTypes": {
          "firm": [
            "global-edit",
            "global-readonly",
            "global-readonly-tran-edit",
            "tran-edit",
            "tran-readonly"
          ]
        },
        "level2": {}
      },
      "details": {
        "entityTypes": {
          "client/prospect": [
            "global-edit",
            "global-readonly",
            "global-readonly-tran-edit",
            "tran-edit",
            "tran-readonly"
          ],
          "firm": [
            "global-edit",
            "global-readonly",
            "global-readonly-tran-edit",
            "tran-edit",
            "tran-readonly"
          ]
        },
        "level2": {}
      },
      "documents": {
        "entityTypes": {
          "client/prospect": [
            "global-edit",
            "global-readonly",
            "global-readonly-tran-edit",
            "tran-edit",
            "tran-readonly"
          ],
          "firm": [
            "global-edit",
            "global-readonly",
            "global-readonly-tran-edit",
            "tran-edit",
            "tran-readonly"
          ],
          "third-parties": [
            "global-edit",
            "global-readonly",
            "global-readonly-tran-edit",
            "tran-edit",
            "tran-readonly"
          ]
        },
        "level2": {}
      },
      "participants": {
        "entityTypes": {
          "client/prospect": [
            "global-edit",
            "global-readonly",
            "global-readonly-tran-edit",
            "tran-edit",
            "tran-readonly"
          ],
          "firm": [
            "global-edit",
            "global-readonly",
            "global-readonly-tran-edit",
            "tran-edit",
            "tran-readonly"
          ]
        },
        "level2": {}
      },
      "summary": {
        "entityTypes": {
          "client/prospect": [
            "global-edit",
            "global-readonly",
            "global-readonly-tran-edit",
            "tran-edit",
            "tran-readonly"
          ],
          "firm": [
            "global-edit",
            "global-readonly",
            "global-readonly-tran-edit",
            "tran-edit",
            "tran-readonly"
          ],
          "third-parties": [
            "global-edit",
            "global-readonly",
            "global-readonly-tran-edit",
            "tran-edit",
            "tran-readonly"
          ]
        },
        "level2": {}
      },
      "tradeSwap": {
        "entityTypes": {
          "client/prospect": [
            "global-edit",
            "global-readonly",
            "global-readonly-tran-edit",
            "tran-edit",
            "tran-readonly"
          ],
          "firm": [
            "global-edit",
            "global-readonly",
            "global-readonly-tran-edit",
            "tran-edit",
            "tran-readonly"
          ]
        },
        "level2": {}
      },
      "tradeCap": {
        "entityTypes": {
          "client/prospect": [
            "global-edit",
            "global-readonly",
            "global-readonly-tran-edit",
            "tran-edit",
            "tran-readonly"
          ],
          "firm": [
            "global-edit",
            "global-readonly",
            "global-readonly-tran-edit",
            "tran-edit",
            "tran-readonly"
          ]
        },
        "level2": {}
      }
    }
  },
  "loan": {
    "entityTypes": {
      "client/prospect": [
        "global-edit",
        "global-readonly",
        "global-readonly-tran-edit",
        "tran-edit",
        "tran-readonly"
      ],
      "firm": [
        "global-edit",
        "global-readonly",
        "global-readonly-tran-edit",
        "tran-edit",
        "tran-readonly"
      ],
      "third-parties": [
        "global-edit",
        "global-readonly",
        "global-readonly-tran-edit",
        "tran-edit",
        "tran-readonly"
      ]
    },
    "level1": {
      "audit-trail": {
        "entityTypes": {
          "firm": [
            "global-edit",
            "global-readonly",
            "global-readonly-tran-edit",
            "tran-edit",
            "tran-readonly"
          ]
        },
        "level2": {}
      },
      "check-track": {
        "entityTypes": {
          "client/prospect": [
            "global-edit",
            "global-readonly",
            "global-readonly-tran-edit",
            "tran-edit",
            "tran-readonly"
          ],
          "firm": [
            "global-edit",
            "global-readonly",
            "global-readonly-tran-edit",
            "tran-edit",
            "tran-readonly"
          ],
          "third-parties": [
            "global-edit",
            "global-readonly",
            "global-readonly-tran-edit",
            "tran-edit",
            "tran-readonly"
          ]
        },
        "level2": {}
      },
      "details": {
        "entityTypes": {
          "client/prospect": [
            "global-edit",
            "global-readonly",
            "global-readonly-tran-edit",
            "tran-edit",
            "tran-readonly"
          ],
          "firm": [
            "global-edit",
            "global-readonly",
            "global-readonly-tran-edit",
            "tran-edit",
            "tran-readonly"
          ]
        },
        "level2": {}
      },
      "documents": {
        "entityTypes": {
          "client/prospect": [
            "global-edit",
            "global-readonly",
            "global-readonly-tran-edit",
            "tran-edit",
            "tran-readonly"
          ],
          "firm": [
            "global-edit",
            "global-readonly",
            "global-readonly-tran-edit",
            "tran-edit",
            "tran-readonly"
          ],
          "third-parties": [
            "global-edit",
            "global-readonly",
            "global-readonly-tran-edit",
            "tran-edit",
            "tran-readonly"
          ]
        },
        "level2": {}
      },
      "participants": {
        "entityTypes": {
          "client/prospect": [
            "global-edit",
            "global-readonly",
            "global-readonly-tran-edit",
            "tran-edit",
            "tran-readonly"
          ],
          "firm": [
            "global-edit",
            "global-readonly",
            "global-readonly-tran-edit",
            "tran-edit",
            "tran-readonly"
          ]
        },
        "level2": {}
      },
      "summary": {
        "entityTypes": {
          "client/prospect": [
            "global-edit",
            "global-readonly",
            "global-readonly-tran-edit",
            "tran-edit",
            "tran-readonly"
          ],
          "firm": [
            "global-edit",
            "global-readonly",
            "global-readonly-tran-edit",
            "tran-edit",
            "tran-readonly"
          ],
          "third-parties": [
            "global-edit",
            "global-readonly",
            "global-readonly-tran-edit",
            "tran-edit",
            "tran-readonly"
          ]
        },
        "level2": {}
      }
    }
  },
  "marfp": {
    "entityTypes": {
      "client/prospect": [
        "global-edit",
        "global-readonly",
        "global-readonly-tran-edit",
        "tran-edit",
        "tran-readonly"
      ],
      "firm": [
        "global-edit",
        "global-readonly",
        "global-readonly-tran-edit",
        "tran-edit",
        "tran-readonly"
      ],
      "third-parties": [
        "global-edit",
        "global-readonly",
        "global-readonly-tran-edit",
        "tran-edit",
        "tran-readonly"
      ]
    },
    "level1": {
      "audit-trail": {
        "entityTypes": {
          "firm": [
            "global-edit",
            "global-readonly",
            "global-readonly-tran-edit",
            "tran-edit",
            "tran-readonly"
          ]
        },
        "level2": {}
      },
      "check-track": {
        "entityTypes": {
          "client/prospect": [
            "global-edit",
            "global-readonly",
            "global-readonly-tran-edit",
            "tran-edit",
            "tran-readonly"
          ],
          "firm": [
            "global-edit",
            "global-readonly",
            "global-readonly-tran-edit",
            "tran-edit",
            "tran-readonly"
          ],
          "third-parties": [
            "global-edit",
            "global-readonly",
            "global-readonly-tran-edit",
            "tran-edit",
            "tran-readonly"
          ]
        },
        "level2": {}
      },
      "details": {
        "entityTypes": {
          "client/prospect": [
            "global-edit",
            "global-readonly",
            "global-readonly-tran-edit",
            "tran-edit",
            "tran-readonly"
          ],
          "firm": [
            "global-edit",
            "global-readonly",
            "global-readonly-tran-edit",
            "tran-edit",
            "tran-readonly"
          ]
        },
        "level2": {}
      },
      "documents": {
        "entityTypes": {
          "client/prospect": [
            "global-edit",
            "global-readonly",
            "global-readonly-tran-edit",
            "tran-edit",
            "tran-readonly"
          ],
          "firm": [
            "global-edit",
            "global-readonly",
            "global-readonly-tran-edit",
            "tran-edit",
            "tran-readonly"
          ],
          "third-parties": [
            "global-edit",
            "global-readonly",
            "global-readonly-tran-edit",
            "tran-edit",
            "tran-readonly"
          ]
        },
        "level2": {}
      },
      "participants": {
        "entityTypes": {
          "client/prospect": [
            "global-edit",
            "global-readonly",
            "global-readonly-tran-edit",
            "tran-edit",
            "tran-readonly"
          ],
          "firm": [
            "global-edit",
            "global-readonly",
            "global-readonly-tran-edit",
            "tran-edit",
            "tran-readonly"
          ]
        },
        "level2": {}
      },
      "summary": {
        "entityTypes": {
          "client/prospect": [
            "global-edit",
            "global-readonly",
            "global-readonly-tran-edit",
            "tran-edit",
            "tran-readonly"
          ],
          "firm": [
            "global-edit",
            "global-readonly",
            "global-readonly-tran-edit",
            "tran-edit",
            "tran-readonly"
          ],
          "third-parties": [
            "global-edit",
            "global-readonly",
            "global-readonly-tran-edit",
            "tran-edit",
            "tran-readonly"
          ]
        },
        "level2": {}
      }
    }
  },
  "others": {
    "entityTypes": {
      "client/prospect": [
        "global-edit",
        "global-readonly",
        "global-readonly-tran-edit",
        "tran-edit",
        "tran-readonly"
      ],
      "firm": [
        "global-edit",
        "global-readonly",
        "global-readonly-tran-edit",
        "tran-edit",
        "tran-readonly"
      ],
      "third-parties": [
        "global-edit",
        "global-readonly",
        "global-readonly-tran-edit",
        "tran-edit",
        "tran-readonly"
      ]
    },
    "level1": {
      "audit-trail": {
        "entityTypes": {
          "firm": [
            "global-edit",
            "global-readonly",
            "global-readonly-tran-edit",
            "tran-edit",
            "tran-readonly"
          ]
        },
        "level2": {}
      },
      "check-track": {
        "entityTypes": {
          "client/prospect": [
            "global-edit",
            "global-readonly",
            "global-readonly-tran-edit",
            "tran-edit",
            "tran-readonly"
          ],
          "firm": [
            "global-edit",
            "global-readonly",
            "global-readonly-tran-edit",
            "tran-edit",
            "tran-readonly"
          ],
          "third-parties": [
            "global-edit",
            "global-readonly",
            "global-readonly-tran-edit",
            "tran-edit",
            "tran-readonly"
          ]
        },
        "level2": {}
      },
      "details": {
        "entityTypes": {
          "client/prospect": [
            "global-edit",
            "global-readonly",
            "global-readonly-tran-edit",
            "tran-edit",
            "tran-readonly"
          ],
          "firm": [
            "global-edit",
            "global-readonly",
            "global-readonly-tran-edit",
            "tran-edit",
            "tran-readonly"
          ]
        },
        "level2": {}
      },
      "documents": {
        "entityTypes": {
          "client/prospect": [
            "global-edit",
            "global-readonly",
            "global-readonly-tran-edit",
            "tran-edit",
            "tran-readonly"
          ],
          "firm": [
            "global-edit",
            "global-readonly",
            "global-readonly-tran-edit",
            "tran-edit",
            "tran-readonly"
          ],
          "third-parties": [
            "global-edit",
            "global-readonly",
            "global-readonly-tran-edit",
            "tran-edit",
            "tran-readonly"
          ]
        },
        "level2": {}
      },
      "participants": {
        "entityTypes": {
          "client/prospect": [
            "global-edit",
            "global-readonly",
            "global-readonly-tran-edit",
            "tran-edit",
            "tran-readonly"
          ],
          "firm": [
            "global-edit",
            "global-readonly",
            "global-readonly-tran-edit",
            "tran-edit",
            "tran-readonly"
          ]
        },
        "level2": {}
      },
      "pricing": {
        "entityTypes": {
          "client/prospect": [
            "global-edit",
            "global-readonly",
            "global-readonly-tran-edit",
            "tran-edit",
            "tran-readonly"
          ],
          "firm": [
            "global-edit",
            "global-readonly",
            "global-readonly-tran-edit",
            "tran-edit",
            "tran-readonly"
          ]
        },
        "level2": {}
      },
      "ratings": {
        "entityTypes": {
          "client/prospect": [
            "global-edit",
            "global-readonly",
            "global-readonly-tran-edit",
            "tran-edit",
            "tran-readonly"
          ],
          "firm": [
            "global-edit",
            "global-readonly",
            "global-readonly-tran-edit",
            "tran-edit",
            "tran-readonly"
          ]
        },
        "level2": {}
      },
      "summary": {
        "entityTypes": {
          "client/prospect": [
            "global-edit",
            "global-readonly",
            "global-readonly-tran-edit",
            "tran-edit",
            "tran-readonly"
          ],
          "firm": [
            "global-edit",
            "global-readonly",
            "global-readonly-tran-edit",
            "tran-edit",
            "tran-readonly"
          ],
          "third-parties": [
            "global-edit",
            "global-readonly",
            "global-readonly-tran-edit",
            "tran-edit",
            "tran-readonly"
          ]
        },
        "level2": {}
      }
    }
  },
  "master": {
    "entityTypes": {
      "client/prospect": [
        "global-edit",
        "global-readonly",
        "global-readonly-tran-edit",
        "tran-edit",
        "tran-readonly"
      ],
      "firm": [
        "global-edit",
        "global-readonly",
        "global-readonly-tran-edit",
        "tran-edit",
        "tran-readonly"
      ],
      "third-parties": [
        "global-edit",
        "global-readonly",
        "global-readonly-tran-edit",
        "tran-edit",
        "tran-readonly"
      ]
    },
    "level1": {
      "mast-allcontacts": {
        "entityTypes": {
          "client/prospect": [
            "global-edit",
            "global-readonly",
            "global-readonly-tran-edit",
            "tran-edit",
            "tran-readonly"
          ],
          "firm": [
            "global-edit",
            "global-readonly",
            "global-readonly-tran-edit",
            "tran-edit",
            "tran-readonly"
          ],
          "third-parties": [
            "global-edit",
            "global-readonly",
            "global-readonly-tran-edit",
            "tran-edit",
            "tran-readonly"
          ]
        },
        "level2": {}
      },
      "mast-cltprosp": {
        "entityTypes": {
          "client/prospect": [
            "global-edit",
            "global-readonly",
            "global-readonly-tran-edit",
            "tran-edit",
            "tran-readonly"
          ],
          "firm": [
            "global-edit",
            "global-readonly",
            "global-readonly-tran-edit",
            "tran-edit",
            "tran-readonly"
          ],
          "third-parties": [
            "global-edit",
            "global-readonly",
            "global-readonly-tran-edit",
            "tran-edit",
            "tran-readonly"
          ]
        },
        "level2": {}
      },
      "mast-thirdparty": {
        "entityTypes": {
          "client/prospect": [
            "global-edit",
            "global-readonly",
            "global-readonly-tran-edit",
            "tran-edit",
            "tran-readonly"
          ],
          "firm": [
            "global-edit",
            "global-readonly",
            "global-readonly-tran-edit",
            "tran-edit",
            "tran-readonly"
          ],
          "third-parties": [
            "global-edit",
            "global-readonly",
            "global-readonly-tran-edit",
            "tran-edit",
            "tran-readonly"
          ]
        },
        "level2": {}
      }
    }
  },
  "messages": {
    "entityTypes": {
      "client/prospect": [
        "global-edit",
        "global-readonly",
        "global-readonly-tran-edit",
        "tran-edit",
        "tran-readonly"
      ],
      "firm": [
        "global-edit",
        "global-readonly",
        "global-readonly-tran-edit",
        "tran-edit",
        "tran-readonly"
      ],
      "third-parties": [
        "global-edit",
        "global-readonly",
        "global-readonly-tran-edit",
        "tran-edit",
        "tran-readonly"
      ]
    },
    "level1": {}
  },
  "new": {
    "entityTypes": {
      "client/prospect": [
        "global-edit",
        "global-readonly-tran-edit",
        "tran-edit",
        "tran-readonly"
      ],
      "firm": [
        "global-edit",
        "global-readonly-tran-edit",
        "tran-edit",
        "tran-readonly"
      ],
      "third-parties": [
        "global-edit",
        "global-readonly-tran-edit",
        "tran-edit",
        "tran-readonly"
      ]
    },
    "level1": {
      "addnew-activity": {
        "entityTypes": {
          "firm": [
            "global-edit"
          ]
        },
        "level2": {}
      },
      "addnew-client": {
        "entityTypes": {
          "firm": [
            "global-edit",
            "global-readonly-tran-edit"
          ]
        },
        "level2": {}
      },
      "addnew-contact": {
        "entityTypes": {
          "firm": [
            "global-edit"
          ]
        },
        "level2": {}
      },
      "addnew-entity": {
        "entityTypes": {
          "firm": [
            "global-edit"
          ]
        },
        "level2": {}
      },
      "addnew-prospect": {
        "entityTypes": {
          "firm": [
            "global-edit"
          ]
        },
        "level2": {}
      },
      "addnew-task": {
        "entityTypes": {
          "client/prospect": [
            "global-edit",
            "global-readonly",
            "global-readonly-tran-edit",
            "tran-edit",
            "tran-readonly"
          ],
          "firm": [
            "global-edit",
            "global-readonly",
            "global-readonly-tran-edit",
            "tran-edit",
            "tran-readonly"
          ],
          "third-parties": [
            "global-edit",
            "global-readonly",
            "global-readonly-tran-edit",
            "tran-edit",
            "tran-readonly"
          ]
        },
        "level2": {}
      },
      "tasks": {
        "entityTypes": {
          "client/prospect": [
            "global-edit",
            "global-readonly",
            "global-readonly-tran-edit",
            "tran-edit",
            "tran-readonly"
          ],
          "firm": [
            "global-edit",
            "global-readonly",
            "global-readonly-tran-edit",
            "tran-edit",
            "tran-readonly"
          ],
          "third-parties": [
            "global-edit",
            "global-readonly",
            "global-readonly-tran-edit",
            "tran-edit",
            "tran-readonly"
          ]
        },
        "level2": {
          "view": {
            "entityTypes": {
              "client/prospect": [
                "global-edit",
                "global-readonly",
                "global-readonly-tran-edit",
                "tran-edit",
                "tran-readonly"
              ],
              "firm": [
                "global-edit",
                "global-readonly",
                "global-readonly-tran-edit",
                "tran-edit",
                "tran-readonly"
              ],
              "third-parties": [
                "global-edit",
                "global-readonly",
                "global-readonly-tran-edit",
                "tran-edit",
                "tran-readonly"
              ]
            },
            "level3": {}
          }
        }
      },
      "addnew-thirdparty": {
        "entityTypes": {
          "firm": [
            "global-edit",
            "global-readonly-tran-edit"
          ]
        },
        "level2": {}
      }
    }
  },
  "rfp": {
    "entityTypes": {
      "client/prospect": [
        "global-edit",
        "global-readonly",
        "global-readonly-tran-edit",
        "tran-edit",
        "tran-readonly"
      ],
      "firm": [
        "global-edit",
        "global-readonly",
        "global-readonly-tran-edit",
        "tran-edit",
        "tran-readonly"
      ],
      "third-parties": [
        "global-edit",
        "global-readonly",
        "global-readonly-tran-edit",
        "tran-edit",
        "tran-readonly"
      ]
    },
    "level1": {
      "audit-trail": {
        "entityTypes": {
          "firm": [
            "global-edit",
            "global-readonly",
            "global-readonly-tran-edit",
            "tran-edit",
            "tran-readonly"
          ]
        },
        "level2": {}
      },
      "check-track": {
        "entityTypes": {
          "client/prospect": [
            "global-edit",
            "global-readonly",
            "global-readonly-tran-edit",
            "tran-edit",
            "tran-readonly"
          ],
          "firm": [
            "global-edit",
            "global-readonly",
            "global-readonly-tran-edit",
            "tran-edit",
            "tran-readonly"
          ],
          "third-parties": [
            "global-edit",
            "global-readonly",
            "global-readonly-tran-edit",
            "tran-edit",
            "tran-readonly"
          ]
        },
        "level2": {}
      },
      "distribute": {
        "entityTypes": {
          "client/prospect": [
            "global-edit",
            "global-readonly",
            "global-readonly-tran-edit",
            "tran-edit",
            "tran-readonly"
          ],
          "firm": [
            "global-edit",
            "global-readonly",
            "global-readonly-tran-edit",
            "tran-edit",
            "tran-readonly"
          ]
        },
        "level2": {}
      },
      "manage": {
        "entityTypes": {
          "client/prospect": [
            "global-edit",
            "global-readonly",
            "global-readonly-tran-edit",
            "tran-edit",
            "tran-readonly"
          ],
          "firm": [
            "global-edit",
            "global-readonly",
            "global-readonly-tran-edit",
            "tran-edit",
            "tran-readonly"
          ],
          "third-parties": [
            "global-edit",
            "global-readonly",
            "global-readonly-tran-edit",
            "tran-edit",
            "tran-readonly"
          ]
        },
        "level2": {}
      },
      "managequemedia": {
        "entityTypes": {
          "client/prospect": [
            "global-edit",
            "global-readonly",
            "global-readonly-tran-edit",
            "tran-edit",
            "tran-readonly"
          ],
          "firm": [
            "global-edit",
            "global-readonly",
            "global-readonly-tran-edit",
            "tran-edit",
            "tran-readonly"
          ],
          "third-parties": [
            "global-edit",
            "global-readonly",
            "global-readonly-tran-edit",
            "tran-edit",
            "tran-readonly"
          ]
        },
        "level2": {}
      },
      "managequestions": {
        "entityTypes": {
          "client/prospect": [
            "global-edit",
            "global-readonly",
            "global-readonly-tran-edit",
            "tran-edit",
            "tran-readonly"
          ],
          "firm": [
            "global-edit",
            "global-readonly",
            "global-readonly-tran-edit",
            "tran-edit",
            "tran-readonly"
          ],
          "third-parties": [
            "global-edit",
            "global-readonly",
            "global-readonly-tran-edit",
            "tran-edit",
            "tran-readonly"
          ]
        },
        "level2": {}
      },
      "manageresponse": {
        "entityTypes": {
          "client/prospect": [
            "global-edit",
            "global-readonly",
            "global-readonly-tran-edit",
            "tran-edit",
            "tran-readonly"
          ],
          "firm": [
            "global-edit",
            "global-readonly",
            "global-readonly-tran-edit",
            "tran-edit",
            "tran-readonly"
          ],
          "third-parties": [
            "global-edit",
            "global-readonly",
            "global-readonly-tran-edit",
            "tran-edit",
            "tran-readonly"
          ]
        },
        "level2": {}
      },
      "summary": {
        "entityTypes": {
          "client/prospect": [
            "global-edit",
            "global-readonly",
            "global-readonly-tran-edit",
            "tran-edit",
            "tran-readonly"
          ],
          "firm": [
            "global-edit",
            "global-readonly",
            "global-readonly-tran-edit",
            "tran-edit",
            "tran-readonly"
          ],
          "third-parties": [
            "global-edit",
            "global-readonly",
            "global-readonly-tran-edit",
            "tran-edit",
            "tran-readonly"
          ]
        },
        "level2": {}
      },
      "managedecide": {
        "entityTypes": {
          "client/prospect": [
            "global-edit",
            "global-readonly",
            "global-readonly-tran-edit",
            "tran-edit",
            "tran-readonly"
          ],
          "firm": [
            "global-edit",
            "global-readonly",
            "global-readonly-tran-edit"
          ]
        },
        "level2": {}
      },
      "managediscuss": {
        "entityTypes": {
          "client/prospect": [
            "global-edit",
            "global-readonly",
            "global-readonly-tran-edit",
            "tran-edit",
            "tran-readonly"
          ],
          "firm": [
            "global-edit",
            "global-readonly",
            "global-readonly-tran-edit"
          ]
        },
        "level2": {}
      },
      "manageevaluate": {
        "entityTypes": {
          "client/prospect": [
            "global-edit",
            "global-readonly",
            "global-readonly-tran-edit",
            "tran-edit",
            "tran-readonly"
          ],
          "firm": [
            "global-edit",
            "global-readonly",
            "global-readonly-tran-edit"
          ]
        },
        "level2": {}
      }
    }
  },
  "thirdparties": {
    "entityTypes": {
      "client/prospect": [
        "global-edit",
        "global-readonly",
        "global-readonly-tran-edit",
        "tran-edit",
        "tran-readonly"
      ],
      "firm": [
        "global-edit",
        "global-readonly",
        "global-readonly-tran-edit",
        "tran-edit",
        "tran-readonly"
      ],
      "third-parties": [
        "global-edit",
        "global-readonly",
        "global-readonly-tran-edit",
        "tran-edit",
        "tran-readonly"
      ]
    },
    "level1": {
      "activity-log": {
        "entityTypes": {
          "firm": [
            "global-edit",
            "global-readonly",
            "global-readonly-tran-edit",
            "tran-edit",
            "tran-readonly"
          ]
        },
        "level2": {}
      },
      "business-activity": {
        "entityTypes": {
          "client/prospect": [
            "global-edit",
            "global-readonly",
            "global-readonly-tran-edit",
            "tran-edit",
            "tran-readonly"
          ],
          "firm": [
            "global-edit",
            "global-readonly",
            "global-readonly-tran-edit",
            "tran-edit",
            "tran-readonly"
          ],
          "third-parties": [
            "global-edit",
            "global-readonly",
            "global-readonly-tran-edit",
            "tran-edit",
            "tran-readonly"
          ]
        },
        "level2": {}
      },
      "contacts": {
        "entityTypes": {
          "client/prospect": [
            "global-edit",
            "global-readonly",
            "global-readonly-tran-edit",
            "tran-edit",
            "tran-readonly"
          ],
          "firm": [
            "global-edit",
            "global-readonly",
            "global-readonly-tran-edit",
            "tran-edit",
            "tran-readonly"
          ],
          "third-parties": [
            "global-edit",
            "global-readonly",
            "global-readonly-tran-edit",
            "tran-edit",
            "tran-readonly"
          ]
        },
        "level2": {}
      },
      "contracts": {
        "entityTypes": {
          "firm": [
            "global-edit",
            "global-readonly",
            "global-readonly-tran-edit",
            "tran-edit",
            "tran-readonly"
          ]
        },
        "level2": {}
      },
      "documents": {
        "entityTypes": {
          "firm": [
            "global-edit",
            "global-readonly",
            "global-readonly-tran-edit",
            "tran-edit",
            "tran-readonly"
          ]
        },
        "level2": {}
      },
      "entity": {
        "entityTypes": {
          "client/prospect": [
            "global-edit",
            "global-readonly",
            "global-readonly-tran-edit",
            "tran-edit",
            "tran-readonly"
          ],
          "firm": [
            "global-edit",
            "global-readonly",
            "global-readonly-tran-edit",
            "tran-edit",
            "tran-readonly"
          ],
          "third-parties": [
            "global-edit",
            "global-readonly",
            "global-readonly-tran-edit",
            "tran-edit",
            "tran-readonly"
          ]
        },
        "level2": {}
      }
    }
  },
  "tools": {
    "entityTypes": {
      "client/prospect": [
        "global-edit",
        "global-readonly",
        "global-readonly-tran-edit",
        "tran-edit",
        "tran-readonly"
      ],
      "firm": [
        "global-edit",
        "global-readonly",
        "global-readonly-tran-edit",
        "tran-edit",
        "tran-readonly"
      ],
      "third-parties": [
        "global-edit",
        "global-readonly",
        "global-readonly-tran-edit",
        "tran-edit",
        "tran-readonly"
      ]
    },
    "level1": {
      "tools-billing": {
        "entityTypes": {
          "firm": [
            "global-edit",
            "global-readonly",
            "global-readonly-tran-edit"
          ]
        },
        "level2": {
          "billing-dashboard": {
            "entityTypes": {
              "firm": [
                "global-edit",
                "global-readonly",
                "global-readonly-tran-edit"
              ]
            },
            "level3": {}
          },
          "billing-expensedetail": {
            "entityTypes": {
              "firm": [
                "global-edit",
                "global-readonly",
                "global-readonly-tran-edit"
              ]
            },
            "level3": {}
          }
        }
      },
      "tools-docs": {
        "entityTypes": {
          "client/prospect": [
            "global-edit",
            "global-readonly",
            "global-readonly-tran-edit",
            "tran-edit",
            "tran-readonly"
          ],
          "firm": [
            "global-edit",
            "global-readonly",
            "global-readonly-tran-edit",
            "tran-edit",
            "tran-readonly"
          ],
          "third-parties": [
            "global-edit",
            "global-readonly",
            "global-readonly-tran-edit",
            "tran-edit",
            "tran-readonly"
          ]
        },
        "level2": {
          "upload-doc": {
            "entityTypes": {
              "client/prospect": [
                "global-edit",
                "global-readonly",
                "global-readonly-tran-edit",
                "tran-edit",
                "tran-readonly"
              ],
              "firm": [
                "global-edit",
                "global-readonly",
                "global-readonly-tran-edit",
                "tran-edit",
                "tran-readonly"
              ],
              "third-parties": [
                "global-edit",
                "global-readonly",
                "global-readonly-tran-edit",
                "tran-edit",
                "tran-readonly"
              ]
            },
            "level3": {}
          },
          "manage-doc": {
            "entityTypes": {
              "firm": [
                "global-edit",
                "global-readonly",
                "global-readonly-tran-edit",
                "tran-edit",
                "tran-readonly"
              ]
            },
            "level3": {}
          },
          "my-docs": {
            "entityTypes": {
              "client/prospect": [
                "global-edit",
                "global-readonly",
                "global-readonly-tran-edit",
                "tran-edit",
                "tran-readonly"
              ],
              "firm": [
                "global-edit",
                "global-readonly",
                "global-readonly-tran-edit",
                "tran-edit",
                "tran-readonly"
              ],
              "third-parties": [
                "global-edit",
                "global-readonly",
                "global-readonly-tran-edit",
                "tran-edit",
                "tran-readonly"
              ]
            },
            "level3": {}
          },
          "shared-docs": {
            "entityTypes": {
              "client/prospect": [
                "global-edit",
                "global-readonly",
                "global-readonly-tran-edit",
                "tran-edit",
                "tran-readonly"
              ],
              "firm": [
                "global-edit",
                "global-readonly",
                "global-readonly-tran-edit",
                "tran-edit",
                "tran-readonly"
              ],
              "third-parties": [
                "global-edit",
                "global-readonly",
                "global-readonly-tran-edit",
                "tran-edit",
                "tran-readonly"
              ]
            },
            "level3": {}
          },
          "audit-trail": {
            "entityTypes": {
              "firm": [
                "global-edit",
                "global-readonly",
                "global-readonly-tran-edit",
                "tran-edit",
                "tran-readonly"
              ]
            },
            "level3": {}
          }
        }
      },
      "tools-docsearch": {
        "entityTypes": {
          "client/prospect": [
            "global-edit",
            "global-readonly",
            "global-readonly-tran-edit",
            "tran-edit",
            "tran-readonly"
          ],
          "firm": [
            "global-edit",
            "global-readonly",
            "global-readonly-tran-edit",
            "tran-edit",
            "tran-readonly"
          ],
          "third-parties": [
            "global-edit",
            "global-readonly",
            "global-readonly-tran-edit",
            "tran-edit",
            "tran-readonly"
          ]
        },
        "level2": {}
      },
      "file-browser": {
        "entityTypes": {
          "firm": [
            "global-edit",
            "global-readonly",
            "global-readonly-tran-edit",
            "tran-edit",
            "tran-readonly"
          ]
        },
        "level2": {}
      },
      "tools-revpipe": {
        "entityTypes": {
          "firm": [
            "global-edit",
            "global-readonly",
            "global-readonly-tran-edit",
            "tran-edit",
            "tran-readonly"
          ]
        },
        "level2": {}
      },
      "tools-globalsearch": {
        "entityTypes": {
          "client/prospect": [
            "global-edit",
            "global-readonly",
            "global-readonly-tran-edit",
            "tran-edit",
            "tran-readonly"
          ],
          "firm": [
            "global-edit",
            "global-readonly",
            "global-readonly-tran-edit",
            "tran-edit",
            "tran-readonly"
          ],
          "third-parties": [
            "global-edit",
            "global-readonly",
            "global-readonly-tran-edit",
            "tran-edit",
            "tran-readonly"
          ]
        },
        "level2": {}
      }
    }
  },
  "userprofile": {
    "entityTypes": {
      "client/prospect": [
        "global-edit",
        "global-readonly",
        "global-readonly-tran-edit",
        "tran-edit",
        "tran-readonly"
      ],
      "firm": [
        "global-edit",
        "global-readonly",
        "global-readonly-tran-edit",
        "tran-edit",
        "tran-readonly"
      ],
      "third-parties": [
        "global-edit",
        "global-readonly",
        "global-readonly-tran-edit",
        "tran-edit",
        "tran-readonly"
      ]
    },
    "level1": {}
  },
  "admin-thirdparties": {
    "entityTypes": {
      "firm": ["global-edit"],
      "third-parties": ["global-edit"]
    },
    "level1": {
      "thirdparty-firms": {
        "entityTypes": {
          "firm": ["global-edit"],
          "third-parties": ["global-edit"]
        },
        "level2": {}
      }
    }
  },
  "createTran": {
    "entityTypes": {
      "firm": ["global-edit"]
    },
    "level1": {
      "businessDevelopment": {
        "entityTypes": {
          "firm": ["global-edit"]
        },
        "level2": {}
      },
      "debt": {
        "entityTypes": {
          "firm": ["global-edit"]
        },
        "level2": {}
      },
      "derivative": {
        "entityTypes": {
          "firm": ["global-edit"]
        },
        "level2": {}
      },
      "marfp": {
        "entityTypes": {
          "firm": ["global-edit"]
        },
        "level2": {}
      },
      "others": {
        "entityTypes": {
          "firm": ["global-edit"]
        },
        "level2": {}
      },
      "rfp": {
        "entityTypes": {
          "firm": ["global-edit"]
        },
        "level2": {}
      }
    }
  },
  "dash-cal": {
    "entityTypes": {
      "firm": [
        "global-edit",
        "global-readonly",
        "global-readonly-tran-edit",
        "tran-edit",
        "tran-readonly"
      ],
      "client/prospect": [
        "tran-edit",
        "tran-readonly"
      ],
      "third-parties": [
        "tran-edit",
        "tran-readonly"
      ]
    },
    "level1": {}
  },
  "migratedentities": {
    "entityTypes": {
      "firm": [
        "global-edit",
        "global-readonly",
        "global-readonly-tran-edit",
        "tran-edit",
        "tran-readonly"
      ]
    },
    "level1": {
      "activity-log": {
        "entityTypes": {
          "firm": [
            "global-edit",
            "global-readonly",
            "global-readonly-tran-edit",
            "tran-edit",
            "tran-readonly"
          ]
        },
        "level2": {}
      },
      "business-activity": {
        "entityTypes": {
          "firm": [
            "global-edit",
            "global-readonly",
            "global-readonly-tran-edit",
            "tran-edit",
            "tran-readonly"
          ]
        },
        "level2": {}
      },
      "contacts": {
        "entityTypes": {
          "firm": [
            "global-edit",
            "global-readonly",
            "global-readonly-tran-edit",
            "tran-edit",
            "tran-readonly"
          ]
        },
        "level2": {}
      },
      "contracts": {
        "entityTypes": {
          "firm": [
            "global-edit",
            "global-readonly",
            "global-readonly-tran-edit",
            "tran-edit",
            "tran-readonly"
          ]
        },
        "level2": {}
      },
      "documents": {
        "entityTypes": {
          "firm": [
            "global-edit",
            "global-readonly",
            "global-readonly-tran-edit",
            "tran-edit",
            "tran-readonly"
          ]
        },
        "level2": {}
      },
      "entity": {
        "entityTypes": {
          "firm": [
            "global-edit",
            "global-readonly",
            "global-readonly-tran-edit",
            "tran-edit",
            "tran-readonly"
          ]
        },
        "level2": {}
      }
    }
  },
  "admin-migratedentities": {
    "entityTypes": {
      "firm": ["global-edit"]
    },
    "level1": {
      "migrated-firms": {
        "entityTypes": {
          "firm": ["global-edit"]
        },
        "level2": {}
      }
    }
  }
}
